[{
	"productId": 9,
	"name": "name 1",
	"description": "description 1",
	"colour": "colour 1",
	"activeFrom": "/Date(967765057000)/",
	"activeTo": "/Date(1114213057000)/",
	"isFavourite": true,
	"price": 9.85,
	"__metadata": {
		"uri": "Products(9)",
		"type": "NorthwindModel.Product"
	}
}, {
	"productId": 416,
	"name": "name 2",
	"description": "description 2",
	"colour": "colour 2",
	"activeFrom": "/Date(1264120657000)/",
	"activeTo": "/Date(1509147457000)/",
	"isFavourite": true,
	"price": 416.31,
	"__metadata": {
		"uri": "Products(416)",
		"type": "NorthwindModel.Product"
	}
}, {
	"productId": 6671,
	"name": "name 3",
	"description": "description 3",
	"colour": "colour 3",
	"activeFrom": "/Date(1149118657000)/",
	"activeTo": "/Date(1224632257000)/",
	"isFavourite": false,
	"price": 6671.92,
	"__metadata": {
		"uri": "Products(6671)",
		"type": "NorthwindModel.Product"
	}
}, {
	"productId": 2613,
	"name": "name 4",
	"description": "description 4",
	"colour": "colour 4",
	"activeFrom": "/Date(1190072257000)/",
	"activeTo": "/Date(1157672257000)/",
	"isFavourite": true,
	"price": 2613.6,
	"__metadata": {
		"uri": "Products(2613)",
		"type": "NorthwindModel.Product"
	}
}, {
	"productId": 7960,
	"name": "name 5",
	"description": "description 5",
	"colour": "colour 5",
	"activeFrom": "/Date(1139186257000)/",
	"activeTo": "/Date(1405294657000)/",
	"isFavourite": false,
	"price": 7960.43,
	"__metadata": {
		"uri": "Products(7960)",
		"type": "NorthwindModel.Product"
	}
}, {
	"productId": 2584,
	"name": "name 6",
	"description": "description 6",
	"colour": "colour 6",
	"activeFrom": "/Date(1301355457000)/",
	"activeTo": "/Date(1516063057000)/",
	"isFavourite": true,
	"price": 2584.86,
	"__metadata": {
		"uri": "Products(2584)",
		"type": "NorthwindModel.Product"
	}
}, {
	"productId": 5101,
	"name": "name 7",
	"description": "description 7",
	"colour": "colour 7",
	"activeFrom": "/Date(1274139457000)/",
	"activeTo": "/Date(990229057000)/",
	"isFavourite": false,
	"price": 5101.49,
	"__metadata": {
		"uri": "Products(5101)",
		"type": "NorthwindModel.Product"
	}
}, {
	"productId": 7638,
	"name": "name 8",
	"description": "description 8",
	"colour": "colour 8",
	"activeFrom": "/Date(1532302657000)/",
	"activeTo": "/Date(1210117057000)/",
	"isFavourite": false,
	"price": 7638.68,
	"__metadata": {
		"uri": "Products(7638)",
		"type": "NorthwindModel.Product"
	}
}, {
	"productId": 100,
	"name": "name 9",
	"description": "description 9",
	"colour": "colour 9",
	"activeFrom": "/Date(1539905857000)/",
	"activeTo": "/Date(1555457857000)/",
	"isFavourite": true,
	"price": 100.85,
	"__metadata": {
		"uri": "Products(100)",
		"type": "NorthwindModel.Product"
	}
}, {
	"productId": 8688,
	"name": "name 10",
	"description": "description 10",
	"colour": "colour 10",
	"activeFrom": "/Date(1039394257000)/",
	"activeTo": "/Date(1239320257000)/",
	"isFavourite": false,
	"price": 8688.55,
	"__metadata": {
		"uri": "Products(8688)",
		"type": "NorthwindModel.Product"
	}
}]